{
  "@class" : "org.jasig.cas.services.RegexRegisteredService",
  "id" : 23897492873423934,
  "name" : "",
  "description" : "",
  "serviceId" : "^https?://(localhost|127.0.0.1):500[0-9]/(?!oauth/callback).*",
  "logo": "",
  "attributeReleasePolicy" : {
    "@class" : "org.jasig.cas.services.ReturnAllowedAttributeReleasePolicy",
    "allowedAttributes" : [ "java.util.ArrayList", [ ] ]
  }
}
